<svg width="64" height="64" version="1" xmlns="http://www.w3.org/2000/svg">
 <circle cx="32" cy="32" r="27" fill="#66bb6a" style="paint-order:stroke fill markers"/>
 <path d="m54 32-8 6v-4h-8v-4h8v-4z" fill="#fff" opacity=".5"/>
 <rect x="30" y="9" width="4" height="46" rx="2" ry="2" opacity=".5"/>
 <path d="m10 32 8 6v-4h8v-4h-8v-4z" fill="#fff" opacity=".5"/>
</svg>
