<svg width="64" height="64" version="1.1" viewBox="0 0 16.933 16.933" xmlns="http://www.w3.org/2000/svg">
 <circle cx="8.466" cy="8.46" r="7.144" fill="#66bb6a" style="paint-order:stroke markers fill"/>
 <circle cx="8.467" cy="8.46" r="5.821" fill="#ffffff" opacity=".15" paint-order="stroke markers fill"/>
 <path d="m5.556 6.347v1.852s1.323-0.918 1.323 0.661c0 1.586-1.323 0.662-1.323 0.662v1.852h1.852s-0.633-1.323 0.794-1.323c1.461 0 0.794 1.323 0.794 1.323h1.852v-1.852s1.058 0.662 1.058-0.662c0-1.058-0.529-0.926-1.058-0.661v-1.852h-1.852s0.794-1.323-0.794-1.323c-1.587 0-0.794 1.323-0.794 1.323" fill="#ffffff"/>
</svg>
