<svg width="64" height="64" version="1.1" viewBox="0 0 16.933 16.933" xmlns="http://www.w3.org/2000/svg">
 <circle cx="8.466" cy="8.46" r="7.144" fill="#66bb6a" style="paint-order:stroke markers fill"/>
 <path d="M8.467 2.643a5.82 5.82 0 0 0-5.821 5.82 5.82 5.82 0 0 0 2.131 4.498h.915a5.292 5.292 0 0 0 2.775.794 5.292 5.292 0 0 0 2.78-.794h.908a5.82 5.82 0 0 0 2.132-4.498 5.82 5.82 0 0 0-5.82-5.82z" opacity=".15" style="paint-order:stroke markers fill"/>
 <path d="M7.673 7.673v4.762H9.26V7.673z" fill="#fff"/>
 <circle cx="8.466" cy="5.821" r=".794" fill="#fff" style="paint-order:stroke fill markers"/>
</svg>
