/* XPM */
static char *bottom_left_inactive_xpm[] = {
/* columns rows colors chars-per-pixel */
"32 32 3 1",
". c None",
"+ c #c9c9c9 s active_color_1",
"@ c #a1a1a1 s active_shadow_1",
/* pixels */
"@+++++..........................",
"@+++++..........................",
"@+++++..........................",
"@+++++..........................",
"@+++++..........................",
"@+++++..........................",
"@+++++..........................",
"@+++++..........................",
"@+++++..........................",
"@+++++..........................",
"@+++++..........................",
"@+++++..........................",
"@+++++..........................",
"@+++++..........................",
"@+++++..........................",
"@+++++..........................",
"@+++++..........................",
"@+++++..........................",
"@+++++..........................",
"@+++++..........................",
"@+++++..........................",
"@+++++..........................",
"@+++++..........................",
"@+++++..........................",
"@+++++..........................",
"@+++++..........................",
"@+++++++++++++++++++++++++++++++",
"@+++++++++++++++++++++++++++++++",
".@++++++++++++++++++++++++++++++",
".@++++++++++++++++++++++++++++++",
"..@@++++++++++++++++++++++++++++",
"....@@@@@@@@@@@@@@@@@@@@@@@@@@@@"
};
