/* XPM */
static char *bottom_right_active_xpm[] = {
/* columns rows colors chars-per-pixel */
"32 32 3 1",
". c None",
"+ c #d8d8d8 s active_color_1",
"@ c #a1a1a1 s active_shadow_1",
/* pixels */
"..........................+++++@",
"..........................+++++@",
"..........................+++++@",
"..........................+++++@",
"..........................+++++@",
"..........................+++++@",
"..........................+++++@",
"..........................+++++@",
"..........................+++++@",
"..........................+++++@",
"..........................+++++@",
"..........................+++++@",
"..........................+++++@",
"..........................+++++@",
"..........................+++++@",
"..........................+++++@",
"..........................+++++@",
"..........................+++++@",
"..........................+++++@",
"..........................+++++@",
"..........................+++++@",
"..........................+++++@",
"..........................+++++@",
"..........................+++++@",
"..........................+++++@",
"..........................+++++@",
"+++++++++++++++++++++++++++++++@",
"+++++++++++++++++++++++++++++++@",
"++++++++++++++++++++++++++++++@.",
"++++++++++++++++++++++++++++++@.",
"++++++++++++++++++++++++++++@@..",
"@@@@@@@@@@@@@@@@@@@@@@@@@@@@...."
};
