/* XPM */
static char *top_left_active_xpm[] = {
/* columns rows colors chars-per-pixel */
"30 30 3 1",
". c None",
"+ c #d8d8d8 s active_color_2",
"@ c #a1a1a1 s active_shadow_2",
/* pixels */
"....@@@@@@@@@@@@@@@@@@@@@@@@@@",
"..@@++++++++++++++++++++++++++",
".@++++++++++++++++++++++++++++",
".@++++++++++++++++++++++++++++",
"@+++++++++++++++++++++++++++++",
"@+++++++++++++++++++++++++++++",
"@+++++++++++++++++++++++++++++",
"@+++++++++++++++++++++++++++++",
"@+++++++++++++++++++++++++++++",
"@+++++++++++++++++++++++++++++",
"@+++++++++++++++++++++++++++++",
"@+++++++++++++++++++++++++++++",
"@+++++++++++++++++++++++++++++",
"@+++++++++++++++++++++++++++++",
"@+++++++++++++++++++++++++++++",
"@+++++++++++++++++++++++++++++",
"@+++++++++++++++++++++++++++++",
"@+++++++++++++++++++++++++++++",
"@+++++++++++++++++++++++++++++",
"@+++++++++++++++++++++++++++++",
"@+++++++++++++++++++++++++++++",
"@+++++++++++++++++++++++++++++",
"@+++++++++++++++++++++++++++++",
"@+++++++++++++++++++++++++++++",
"@+++++++++++++++++++++++++++++",
"@+++++++++++++++++++++++++++++",
"@+++++++++++++++++++++++++++++",
"@+++++++++++++++++++++++++++++",
"@+++++++++++++++++++++++++++++",
"@+++++++++++++++++++++++++++++"
};
