/* XPM */
static char *stick_toggled_inactive_xpm[] = {
/* columns rows colors chars-per-pixel */
"24 26 7 1",
"/ c None",
". c #212121",
"_ c #212121",
"= c #323232",
"# c #434343",
"x c #646464 s inactive_text_color",
"X c #000000 s active_text_color",
/* pixels */
"////////////////////////",
"////////////////////////",
"___##################___",
"_######################_",
"_######################_",
"########################",
"########################",
"########################",
"########################",
"########################",
"##########xxxx##########",
"#########xxxxxx#########",
"########xxx##xxx########",
"########xx####xx########",
"########xx####xx########",
"########xxx##xxx########",
"#########xxxxxx#########",
"##########xxxx##########",
"########################",
"########################",
"########################",
"########################",
"########################",
"_######################_",
"_######################_",
"___##################___",
};

