/* XPM */
static char *stick_prelight_xpm[] = {
/* columns rows colors chars-per-pixel */
"24 26 7 1",
"/ c None",
". c #212121",
"_ c #212121",
"= c #323232",
"# c #434343",
"x c #646464 s inactive_text_color",
"X c #000000 s active_text_color",
/* pixels */
"////////////////////////",
"////////////////////////",
"...==================...",
".======================.",
".======================.",
"========================",
"========================",
"========================",
"========================",
"========================",
"==========XXXX==========",
"=========XXXXXX=========",
"========XXX==XXX========",
"========XX====XX========",
"========XX====XX========",
"========XXX==XXX========",
"=========XXXXXX=========",
"==========XXXX==========",
"========================",
"========================",
"========================",
"========================",
"========================",
".======================.",
".======================.",
"...==================...",
};

