/* XPM */
static char *top_left_active_xpm[] = {
/* columns rows colors chars-per-pixel */
"30 30 3 1",
". c None",
"+ c #212121",
"@ c #000000",
/* pixels */
"....@@@@@@@@@@@@@@@@@@@@@@@@@@",
"..@@++++++++++++++++++++++++++",
".@++++++++++++++++++++++++++++",
".@++++++++++++++++++++++++++++",
"@+++++++++++++++++++++++++++++",
"@+++++++++++++++++++++++++++++",
"@+++++++++++++++++++++++++++++",
"@+++++++++++++++++++++++++++++",
"@+++++++++++++++++++++++++++++",
"@+++++++++++++++++++++++++++++",
"@+++++++++++++++++++++++++++++",
"@+++++++++++++++++++++++++++++",
"@+++++++++++++++++++++++++++++",
"@+++++++++++++++++++++++++++++",
"@+++++++++++++++++++++++++++++",
"@+++++++++++++++++++++++++++++",
"@+++++++++++++++++++++++++++++",
"@+++++++++++++++++++++++++++++",
"@+++++++++++++++++++++++++++++",
"@+++++++++++++++++++++++++++++",
"@+++++++++++++++++++++++++++++",
"@+++++++++++++++++++++++++++++",
"@+++++++++++++++++++++++++++++",
"@+++++++++++++++++++++++++++++",
"@+++++++++++++++++++++++++++++",
"@+++++++++++++++++++++++++++++",
"@+++++++++++++++++++++++++++++",
"@+++++++++++++++++++++++++++++",
"@+++++++++++++++++++++++++++++",
"@+++++++++++++++++++++++++++++"
};
