/* XPM */
static char *top_right_inactive_xpm[] = {
/* columns rows colors chars-per-pixel */
"30 30 3 1",
". c None",
"+ c #212121",
"@ c #000000",
/* pixels */
"@@@@@@@@@@@@@@@@@@@@@@@@@@....",
"++++++++++++++++++++++++++@@..",
"++++++++++++++++++++++++++++@.",
"++++++++++++++++++++++++++++@.",
"+++++++++++++++++++++++++++++@",
"+++++++++++++++++++++++++++++@",
"+++++++++++++++++++++++++++++@",
"+++++++++++++++++++++++++++++@",
"+++++++++++++++++++++++++++++@",
"+++++++++++++++++++++++++++++@",
"+++++++++++++++++++++++++++++@",
"+++++++++++++++++++++++++++++@",
"+++++++++++++++++++++++++++++@",
"+++++++++++++++++++++++++++++@",
"+++++++++++++++++++++++++++++@",
"+++++++++++++++++++++++++++++@",
"+++++++++++++++++++++++++++++@",
"+++++++++++++++++++++++++++++@",
"+++++++++++++++++++++++++++++@",
"+++++++++++++++++++++++++++++@",
"+++++++++++++++++++++++++++++@",
"+++++++++++++++++++++++++++++@",
"+++++++++++++++++++++++++++++@",
"+++++++++++++++++++++++++++++@",
"+++++++++++++++++++++++++++++@",
"+++++++++++++++++++++++++++++@",
"+++++++++++++++++++++++++++++@",
"+++++++++++++++++++++++++++++@",
"+++++++++++++++++++++++++++++@",
"+++++++++++++++++++++++++++++@"
};
