classify-client.services.mozilla.com:HSTS	0	19895	1750511115140,1,0
firefox.settings.services.mozilla.com:HSTS	0	19895	1750511115103,1,0
services.addons.mozilla.org:HSTS	0	19895	1750511144508,1,0
shavar.services.mozilla.com^firstPartyDomain=safebrowsing.86868755-6b82-4842-b301-72671a0db32e.mozilla:HSTS	0	19895	1750511115468,1,1
location.services.mozilla.com:HSTS	0	19895	1750511114620,1,0
www.mozilla.org^partitionKey=%28http%2Cmozilla.org%29:HSTS	0	19895	1750511114613,1,0
normandy.cdn.mozilla.net:HSTS	0	19895	1750511114948,1,0
aus5.mozilla.org:HSTS	0	19895	1750511144694,1,0
